W 0 _0g; down=0.1, ground
W 0 1; up=0.5
V0 1 _2; up, v=U_q, l=
W _2  3; right
R2 3  4; down 
W  4  5; down
W  5  1; left
R1 3 _6; right=1.5
W  _6 7; down
R3 4 7; right
R4 7 8; down
R5 5 8; right, v=U_{R5}
W  8 _9; down=0.5
R6  _9 0; left
; label_nodes=false, label_values=false