Ri1   0   _1; up=1.3
V0   K1   _1; down, v=U_{q1}, i=I_{q1}, l=
R1    K1  _2; up=1.3
W    _2   K2; right
W     K2   4; right
W     4  _5; right
R6   _5  _6; down
W    _6   K4; left
W     K4   8; left
R5    8   K0; left
W     K0   0; left=0.7
R2   K1  K3; right=1.5
R3   K3   8; down
Ri2  K3   K2; up
W    K3  12; right
I0   12   4; up, i=I_{q2}, l=
R4   12   K4; down
W     0 _13g; down=0.1, ground
; label_nodes=alpha, label_values=false