Ri1   0   _1; up=1.3
R1    _1  _2; up=1.3
W    _2   K2; right
W     K2   _4; right
W     _4  _5; right
R6   _5  _6; down
W    _6   K4; left
W     K4   _8; left
R5    _8   K0; left
W     K0   0; left=0.7
I01   K1   K0; down, i=I_{q1}, l=
W    K1   _1; left=0.7
R2   K1  K3; right=1.5
R3   K3   _8; down
Ri2  K3   K2; up
W    K3  _12; right
I0   _12   _4; up, i=I_{q2}, l=
R4   _12   K4; down
W     0 _13g; down=0.1, ground
; label_nodes=true, label_values=false