V0    0	 _1; up, v=U_{q1}, l=
Ri1  _1	 _2; up
W    _2	  K1; right
W     K1  4; right
R2    4	  5; right=1.3
W     5	  K2; right
W     K3  10; left
R1   10	 11; left
W    11	 K0; left
W    K0	  0; left
Ri2  K0	 K1; up
I0    4	 11; down, i=I_{q2}, l=
R3    5	 10; down
R4   K2 K3; down
W     0 _13g; down=0.1, ground
; label_nodes=alpha, label_values=false