R1 _0  _1; up, 
W  _1  2; right
W  _0  0; right
I0  0  2; up, i=I_q, l=
R2  2  4; right
R3  0  5; right
R4  4  5; down
R5  4  k; right
W   5  l; right
W   k _6; right
W   l _7; right
RL  _6 _7; down
; label_nodes=alpha